{
    "success": true,
    "code": 200,
    "message": "请求成功",
    "data": {
        "pageNo": 1,
        "pageSize": 10,
        "totalPage": 14,
        "totalRows": 138,
        "rows": [
            {
                "id": "1766357886503510018",
                "createTime": "1709967512139",
                "createUser": "1765348957346619393",
                "updateTime": "1709967610596",
                "updateUser": "1741357416760586242",
                "orgCode": "xg_cm",
                "playerId": "1765348957346619393",
                "loginName": "Nguyễn Thị Bích Vân ",
                "orderNo": "W240309135832139152",
                "cashMoney": 2000000.0000,
                "fee": 0.0000,
                "bankName": "BIDV",
                "accountName": "NGUYEN THI BICH VAN",
                "cardNo": "7020316457",
                "branch": "",
                "status": 3,
                "operatorUser": null,
                "operatorTime": null,
                "riskOpruser": null,
                "riskOprtime": null,
                "riskStatus": 1,
                "approveReason": null,
                "finishUser": "admin",
                "finishTime": "1709967610592",
                "policeFlag": null,
                "ip": "14.161.235.124",
                "proxyPayStatus": null,
                "proxyPayDesc": null,
                "remarks": null,
                "copyContent": "提现金额:2000000.0000,卡号:7020316457,银行名称:BIDV,卡主姓名:NGUYEN THI BICH VAN",
                "playerType": "HY"
            },
            {
                "id": "1766285179367743490",
                "createTime": "1709950177407",
                "createUser": "1762387285698961410",
                "updateTime": "1709951530501",
                "updateUser": "1741357416760586242",
                "orgCode": "xg_cm",
                "playerId": "1762387285698961410",
                "loginName": "648020522078",
                "orderNo": "W240309090937407151",
                "cashMoney": 2110000.0000,
                "fee": 0.0000,
                "bankName": "Agribank",
                "accountName": "Nguyễn thị liên ",
                "cardNo": "6480205220478",
                "branch": "",
                "status": 2,
                "operatorUser": null,
                "operatorTime": null,
                "riskOpruser": null,
                "riskOprtime": null,
                "riskStatus": 1,
                "approveReason": null,
                "finishUser": "admin",
                "finishTime": "1709951530501",
                "policeFlag": null,
                "ip": "125.235.239.0",
                "proxyPayStatus": null,
                "proxyPayDesc": null,
                "remarks": null,
                "copyContent": "提现金额:2110000.0000,卡号:6480205220478,银行名称:Agribank,卡主姓名:Nguyễn thị liên ",
                "playerType": "HY"
            },
            {
                "id": "1766007580628377601",
                "createTime": "1709883992710",
                "createUser": "1765348957346619393",
                "updateTime": "1709884038083",
                "updateUser": "1741357416760586242",
                "orgCode": "xg_cm",
                "playerId": "1765348957346619393",
                "loginName": "Nguyễn Thị Bích Vân ",
                "orderNo": "W240308144632710150",
                "cashMoney": 5000000.0000,
                "fee": 0.0000,
                "bankName": "BIDV",
                "accountName": "NGUYEN THI BICH VAN",
                "cardNo": "7020316457",
                "branch": "",
                "status": 3,
                "operatorUser": null,
                "operatorTime": null,
                "riskOpruser": null,
                "riskOprtime": null,
                "riskStatus": 1,
                "approveReason": null,
                "finishUser": "admin",
                "finishTime": "1709884038079",
                "policeFlag": null,
                "ip": "171.253.28.113",
                "proxyPayStatus": null,
                "proxyPayDesc": null,
                "remarks": null,
                "copyContent": "提现金额:5000000.0000,卡号:7020316457,银行名称:BIDV,卡主姓名:NGUYEN THI BICH VAN",
                "playerType": "HY"
            },
            {
                "id": "1765934698145538049",
                "createTime": "1709866616172",
                "createUser": "1762387285698961410",
                "updateTime": "1709866947245",
                "updateUser": "1741357416760586242",
                "orgCode": "xg_cm",
                "playerId": "1762387285698961410",
                "loginName": "648020522078",
                "orderNo": "W240308095656172149",
                "cashMoney": 1110000.0000,
                "fee": 0.0000,
                "bankName": "Agribank",
                "accountName": "Nguyễn thị liên ",
                "cardNo": "6480205220478",
                "branch": "",
                "status": 2,
                "operatorUser": null,
                "operatorTime": null,
                "riskOpruser": null,
                "riskOprtime": null,
                "riskStatus": 1,
                "approveReason": null,
                "finishUser": "admin",
                "finishTime": "1709866947245",
                "policeFlag": null,
                "ip": "125.235.239.15",
                "proxyPayStatus": null,
                "proxyPayDesc": null,
                "remarks": null,
                "copyContent": "提现金额:1110000.0000,卡号:6480205220478,银行名称:Agribank,卡主姓名:Nguyễn thị liên ",
                "playerType": "HY"
            },
            {
                "id": "1765761981257637890",
                "createTime": "1709825437258",
                "createUser": "1764972535348224002",
                "updateTime": "1709825474887",
                "updateUser": "1741357416760586242",
                "orgCode": "xg_cm",
                "playerId": "1764972535348224002",
                "loginName": "LE THI THANH BINH",
                "orderNo": "W240307223037258148",
                "cashMoney": 300000.0000,
                "fee": 0.0000,
                "bankName": "Agribank ",
                "accountName": "Lê Thị Thanh Bình ",
                "cardNo": "7805215012690",
                "branch": "",
                "status": 2,
                "operatorUser": null,
                "operatorTime": null,
                "riskOpruser": null,
                "riskOprtime": null,
                "riskStatus": 1,
                "approveReason": null,
                "finishUser": "admin",
                "finishTime": "1709825474887",
                "policeFlag": null,
                "ip": "116.105.124.159",
                "proxyPayStatus": null,
                "proxyPayDesc": null,
                "remarks": null,
                "copyContent": "提现金额:300000.0000,卡号:7805215012690,银行名称:Agribank ,卡主姓名:Lê Thị Thanh Bình ",
                "playerType": "HY"
            },
            {
                "id": "1765687109575794689",
                "createTime": "1709807586457",
                "createUser": "1763920501199101954",
                "updateTime": "1709809357230",
                "updateUser": "1741357416760586242",
                "orgCode": "xg_cm",
                "playerId": "1763920501199101954",
                "loginName": "Tranh",
                "orderNo": "W240307173306457147",
                "cashMoney": 5000000.0000,
                "fee": 0.0000,
                "bankName": "Agribank ",
                "accountName": "Hoàng Thị hà tranh ",
                "cardNo": "6090205627011",
                "branch": "",
                "status": 3,
                "operatorUser": null,
                "operatorTime": null,
                "riskOpruser": null,
                "riskOprtime": null,
                "riskStatus": 1,
                "approveReason": null,
                "finishUser": "admin",
                "finishTime": "1709809357224",
                "policeFlag": null,
                "ip": "14.191.65.4",
                "proxyPayStatus": null,
                "proxyPayDesc": null,
                "remarks": null,
                "copyContent": "提现金额:5000000.0000,卡号:6090205627011,银行名称:Agribank ,卡主姓名:Hoàng Thị hà tranh ",
                "playerType": "HY"
            },
            {
                "id": "1765672937995657217",
                "createTime": "1709804207689",
                "createUser": "1763920501199101954",
                "updateTime": "1709804578764",
                "updateUser": "1741357416760586242",
                "orgCode": "xg_cm",
                "playerId": "1763920501199101954",
                "loginName": "Tranh",
                "orderNo": "W240307163647689146",
                "cashMoney": 2500000.0000,
                "fee": 0.0000,
                "bankName": "Agribank ",
                "accountName": "Hoàng Thị hà tranh ",
                "cardNo": "6090205627011",
                "branch": "",
                "status": 3,
                "operatorUser": null,
                "operatorTime": null,
                "riskOpruser": null,
                "riskOprtime": null,
                "riskStatus": 1,
                "approveReason": null,
                "finishUser": "admin",
                "finishTime": "1709804578760",
                "policeFlag": null,
                "ip": "14.191.65.4",
                "proxyPayStatus": null,
                "proxyPayDesc": null,
                "remarks": null,
                "copyContent": "提现金额:2500000.0000,卡号:6090205627011,银行名称:Agribank ,卡主姓名:Hoàng Thị hà tranh ",
                "playerType": "HY"
            },
            {
                "id": "1765615938423513089",
                "createTime": "1709790617933",
                "createUser": "1762387285698961410",
                "updateTime": "1709791259248",
                "updateUser": "1741357416760586242",
                "orgCode": "xg_cm",
                "playerId": "1762387285698961410",
                "loginName": "648020522078",
                "orderNo": "W240307125017933145",
                "cashMoney": 1110000.0000,
                "fee": 0.0000,
                "bankName": "Agribank",
                "accountName": "Nguyễn thị liên ",
                "cardNo": "6480205220478",
                "branch": "",
                "status": 2,
                "operatorUser": null,
                "operatorTime": null,
                "riskOpruser": null,
                "riskOprtime": null,
                "riskStatus": 1,
                "approveReason": null,
                "finishUser": "admin",
                "finishTime": "1709791259248",
                "policeFlag": null,
                "ip": "125.235.239.18",
                "proxyPayStatus": null,
                "proxyPayDesc": null,
                "remarks": null,
                "copyContent": "提现金额:1110000.0000,卡号:6480205220478,银行名称:Agribank,卡主姓名:Nguyễn thị liên ",
                "playerType": "HY"
            },
            {
                "id": "1765356811021475842",
                "createTime": "1709728837143",
                "createUser": "1762387285698961410",
                "updateTime": "1709728922014",
                "updateUser": "1741357416760586242",
                "orgCode": "xg_cm",
                "playerId": "1762387285698961410",
                "loginName": "648020522078",
                "orderNo": "W240306194037143144",
                "cashMoney": 1110000.0000,
                "fee": 0.0000,
                "bankName": "Agribank",
                "accountName": "Nguyễn thị liên ",
                "cardNo": "6480205220478",
                "branch": "",
                "status": 2,
                "operatorUser": null,
                "operatorTime": null,
                "riskOpruser": null,
                "riskOprtime": null,
                "riskStatus": 1,
                "approveReason": null,
                "finishUser": "admin",
                "finishTime": "1709728922014",
                "policeFlag": null,
                "ip": "116.110.43.53",
                "proxyPayStatus": null,
                "proxyPayDesc": null,
                "remarks": null,
                "copyContent": "提现金额:1110000.0000,卡号:6480205220478,银行名称:Agribank,卡主姓名:Nguyễn thị liên ",
                "playerType": "HY"
            },
            {
                "id": "1765027255689437186",
                "createTime": "1709650265032",
                "createUser": "1762387285698961410",
                "updateTime": "1709650307244",
                "updateUser": "1741357416760586242",
                "orgCode": "xg_cm",
                "playerId": "1762387285698961410",
                "loginName": "648020522078",
                "orderNo": "W240305215105032143",
                "cashMoney": 1110000.0000,
                "fee": 0.0000,
                "bankName": "Agribank",
                "accountName": "Nguyễn thị liên ",
                "cardNo": "6480205220478",
                "branch": "",
                "status": 2,
                "operatorUser": null,
                "operatorTime": null,
                "riskOpruser": null,
                "riskOprtime": null,
                "riskStatus": 1,
                "approveReason": null,
                "finishUser": "admin",
                "finishTime": "1709650307244",
                "policeFlag": null,
                "ip": "116.110.43.53",
                "proxyPayStatus": null,
                "proxyPayDesc": null,
                "remarks": null,
                "copyContent": "提现金额:1110000.0000,卡号:6480205220478,银行名称:Agribank,卡主姓名:Nguyễn thị liên ",
                "playerType": "HY"
            }
        ],
        "rainbow": [
            1,
            2,
            3,
            4,
            5
        ],
        "totalRecords": [],
        "totalSum": null
    }
}