{
    "success": true,
    "code": 200,
    "message": "请求成功",
    "data": {
        "pageNo": 1,
        "pageSize": 10,
        "totalPage": 18,
        "totalRows": 179,
        "rows": [
            {
                "id": "1766359300449509377",
                "createTime": "1709967849246",
                "createUser": "1741357416760586242",
                "updateTime": "1709967849246",
                "updateUser": "1741357416760586242",
                "orgCode": "xg_cm",
                "playerId": "1764628340448190465",
                "loginName": "test3",
                "orderNo": "D240309140409246109",
                "rechPerson": null,
                "rechMoney": 8888888888.0000,
                "actualMoney": 8888888888.0000,
                "discountMoney": 0.0000,
                "fee": 0.0000,
                "rechChannel": "MANUAL_RECHARGE",
                "payeeBank": null,
                "payeeBankBranch": null,
                "payeeName": null,
                "payeeNo": null,
                "payeeRemark": null,
                "status": 6,
                "operatorAccount": null,
                "operatorTime": null,
                "operatorMemo": null,
                "finishUser": "admin",
                "finishTime": "1709967849246",
                "finishMemo": null,
                "thirdOrderNo": null,
                "thirdChannel": null,
                "ipAddress": "113.246.68.20",
                "reckonDmlFlag": null,
                "playerType": "HY"
            },
            {
                "id": "1766359110497869826",
                "createTime": "1709967803958",
                "createUser": "1741357416760586242",
                "updateTime": "1709967803958",
                "updateUser": "1741357416760586242",
                "orgCode": "xg_cm",
                "playerId": "1764628340448190465",
                "loginName": "test3",
                "orderNo": "D240309140323958108",
                "rechPerson": null,
                "rechMoney": 999999999.0000,
                "actualMoney": 999999999.0000,
                "discountMoney": 0.0000,
                "fee": 0.0000,
                "rechChannel": "MANUAL_RECHARGE",
                "payeeBank": null,
                "payeeBankBranch": null,
                "payeeName": null,
                "payeeNo": null,
                "payeeRemark": null,
                "status": 6,
                "operatorAccount": null,
                "operatorTime": null,
                "operatorMemo": null,
                "finishUser": "admin",
                "finishTime": "1709967803958",
                "finishMemo": null,
                "thirdOrderNo": null,
                "thirdChannel": null,
                "ipAddress": "113.246.68.20",
                "reckonDmlFlag": null,
                "playerType": "HY"
            },
            {
                "id": "1766358904146501634",
                "createTime": "1709967754760",
                "createUser": "1741357416760586242",
                "updateTime": "1709967754760",
                "updateUser": "1741357416760586242",
                "orgCode": "xg_cm",
                "playerId": "1764628340448190465",
                "loginName": "test3",
                "orderNo": "D240309140234760106",
                "rechPerson": null,
                "rechMoney": 100000000.0000,
                "actualMoney": 100000000.0000,
                "discountMoney": 0.0000,
                "fee": 0.0000,
                "rechChannel": "MANUAL_RECHARGE",
                "payeeBank": null,
                "payeeBankBranch": null,
                "payeeName": null,
                "payeeNo": null,
                "payeeRemark": null,
                "status": 6,
                "operatorAccount": null,
                "operatorTime": null,
                "operatorMemo": null,
                "finishUser": "admin",
                "finishTime": "1709967754760",
                "finishMemo": null,
                "thirdOrderNo": null,
                "thirdChannel": null,
                "ipAddress": "113.246.68.20",
                "reckonDmlFlag": null,
                "playerType": "HY"
            },
            {
                "id": "1766358709656625153",
                "createTime": "1709967708390",
                "createUser": "1741357416760586242",
                "updateTime": "1709967708390",
                "updateUser": "1741357416760586242",
                "orgCode": "xg_cm",
                "playerId": "1764628340448190465",
                "loginName": "test3",
                "orderNo": "D240309140148390105",
                "rechPerson": null,
                "rechMoney": 100000000.0000,
                "actualMoney": 100000000.0000,
                "discountMoney": 0.0000,
                "fee": 0.0000,
                "rechChannel": "MANUAL_RECHARGE",
                "payeeBank": null,
                "payeeBankBranch": null,
                "payeeName": null,
                "payeeNo": null,
                "payeeRemark": null,
                "status": 6,
                "operatorAccount": null,
                "operatorTime": null,
                "operatorMemo": null,
                "finishUser": "admin",
                "finishTime": "1709967708390",
                "finishMemo": null,
                "thirdOrderNo": null,
                "thirdChannel": null,
                "ipAddress": "113.246.68.20",
                "reckonDmlFlag": null,
                "playerType": "HY"
            },
            {
                "id": "1766112452212170754",
                "createTime": "1709908996039",
                "createUser": "1741357416760586242",
                "updateTime": "1709908996039",
                "updateUser": "1741357416760586242",
                "orgCode": "xg_cm",
                "playerId": "1764265035846148097",
                "loginName": "0972022938",
                "orderNo": "D240308214316039104",
                "rechPerson": null,
                "rechMoney": 30000000.0000,
                "actualMoney": 30000000.0000,
                "discountMoney": 0.0000,
                "fee": 0.0000,
                "rechChannel": "MANUAL_RECHARGE",
                "payeeBank": null,
                "payeeBankBranch": null,
                "payeeName": null,
                "payeeNo": null,
                "payeeRemark": null,
                "status": 6,
                "operatorAccount": null,
                "operatorTime": null,
                "operatorMemo": null,
                "finishUser": "admin",
                "finishTime": "1709908996039",
                "finishMemo": null,
                "thirdOrderNo": null,
                "thirdChannel": null,
                "ipAddress": "144.48.24.39",
                "reckonDmlFlag": null,
                "playerType": "HY"
            },
            {
                "id": "1766099352004075521",
                "createTime": "1709905872708",
                "createUser": "1741357416760586242",
                "updateTime": "1709905872708",
                "updateUser": "1741357416760586242",
                "orgCode": "xg_cm",
                "playerId": "1764936827376001026",
                "loginName": "LE THI CHIEM ",
                "orderNo": "D240308205112707103",
                "rechPerson": null,
                "rechMoney": 51500.0000,
                "actualMoney": 51500.0000,
                "discountMoney": 0.0000,
                "fee": 0.0000,
                "rechChannel": "MANUAL_RECHARGE",
                "payeeBank": null,
                "payeeBankBranch": null,
                "payeeName": null,
                "payeeNo": null,
                "payeeRemark": null,
                "status": 6,
                "operatorAccount": null,
                "operatorTime": null,
                "operatorMemo": null,
                "finishUser": "admin",
                "finishTime": "1709905872708",
                "finishMemo": null,
                "thirdOrderNo": null,
                "thirdChannel": null,
                "ipAddress": "144.48.24.39",
                "reckonDmlFlag": null,
                "playerType": "HY"
            },
            {
                "id": "1766078768687882242",
                "createTime": "1709900965262",
                "createUser": "1741357416760586242",
                "updateTime": "1709900965262",
                "updateUser": "1741357416760586242",
                "orgCode": "xg_cm",
                "playerId": "1764265035846148097",
                "loginName": "0972022938",
                "orderNo": "D240308192925262102",
                "rechPerson": null,
                "rechMoney": 100000.0000,
                "actualMoney": 100000.0000,
                "discountMoney": 0.0000,
                "fee": 0.0000,
                "rechChannel": "MANUAL_RECHARGE",
                "payeeBank": null,
                "payeeBankBranch": null,
                "payeeName": null,
                "payeeNo": null,
                "payeeRemark": null,
                "status": 6,
                "operatorAccount": null,
                "operatorTime": null,
                "operatorMemo": null,
                "finishUser": "admin",
                "finishTime": "1709900965262",
                "finishMemo": null,
                "thirdOrderNo": null,
                "thirdChannel": null,
                "ipAddress": "144.48.24.39",
                "reckonDmlFlag": null,
                "playerType": "HY"
            },
            {
                "id": "1766078688908025858",
                "createTime": "1709900946240",
                "createUser": "1741357416760586242",
                "updateTime": "1709900946240",
                "updateUser": "1741357416760586242",
                "orgCode": "xg_cm",
                "playerId": "1762387285698961410",
                "loginName": "648020522078",
                "orderNo": "D240308192906240101",
                "rechPerson": null,
                "rechMoney": 2370000.0000,
                "actualMoney": 2370000.0000,
                "discountMoney": 0.0000,
                "fee": 0.0000,
                "rechChannel": "MANUAL_RECHARGE",
                "payeeBank": null,
                "payeeBankBranch": null,
                "payeeName": null,
                "payeeNo": null,
                "payeeRemark": null,
                "status": 6,
                "operatorAccount": null,
                "operatorTime": null,
                "operatorMemo": null,
                "finishUser": "admin",
                "finishTime": "1709900946240",
                "finishMemo": null,
                "thirdOrderNo": null,
                "thirdChannel": null,
                "ipAddress": "144.48.24.39",
                "reckonDmlFlag": null,
                "playerType": "HY"
            },
            {
                "id": "1765989517665247234",
                "createTime": "1709879686160",
                "createUser": "1741357416760586242",
                "updateTime": "1709879686160",
                "updateUser": "1741357416760586242",
                "orgCode": "xg_cm",
                "playerId": "1765988910627823617",
                "loginName": "Nguyễn Tuấn Tú",
                "orderNo": "D240308133446159100",
                "rechPerson": null,
                "rechMoney": 2000000000.0000,
                "actualMoney": 2000000000.0000,
                "discountMoney": 0.0000,
                "fee": 0.0000,
                "rechChannel": "MANUAL_RECHARGE",
                "payeeBank": null,
                "payeeBankBranch": null,
                "payeeName": null,
                "payeeNo": null,
                "payeeRemark": null,
                "status": 6,
                "operatorAccount": null,
                "operatorTime": null,
                "operatorMemo": null,
                "finishUser": "admin",
                "finishTime": "1709879686160",
                "finishMemo": null,
                "thirdOrderNo": null,
                "thirdChannel": null,
                "ipAddress": "144.48.24.39",
                "reckonDmlFlag": null,
                "playerType": "HY"
            },
            {
                "id": "1765767929036546049",
                "createTime": "1709826855314",
                "createUser": "1741357416760586242",
                "updateTime": "1709826855314",
                "updateUser": "1741357416760586242",
                "orgCode": "xg_cm",
                "playerId": "1762387285698961410",
                "loginName": "648020522078",
                "orderNo": "D24030722541531499",
                "rechPerson": null,
                "rechMoney": 50000000.0000,
                "actualMoney": 50000000.0000,
                "discountMoney": 0.0000,
                "fee": 0.0000,
                "rechChannel": "MANUAL_RECHARGE",
                "payeeBank": null,
                "payeeBankBranch": null,
                "payeeName": null,
                "payeeNo": null,
                "payeeRemark": null,
                "status": 6,
                "operatorAccount": null,
                "operatorTime": null,
                "operatorMemo": null,
                "finishUser": "admin",
                "finishTime": "1709826855314",
                "finishMemo": null,
                "thirdOrderNo": null,
                "thirdChannel": null,
                "ipAddress": "144.48.24.39",
                "reckonDmlFlag": null,
                "playerType": "HY"
            }
        ],
        "rainbow": [
            1,
            2,
            3,
            4,
            5
        ],
        "totalRecords": [],
        "totalSum": null
    }
}