{
    "success": true,
    "code": 200,
    "message": "请求成功",
    "data": {
        "pageNo": 1,
        "pageSize": 10,
        "totalPage": 3,
        "totalRows": 30,
        "rows": [
            {
                "id": "1741386157314400258",
                "createTime": "1704013788000",
                "createUser": "1741385662134857729",
                "updateTime": null,
                "updateUser": null,
                "orgCode": "xg_cm",
                "playerId": "1741385662134857729",
                "loginName": "10001",
                "accountName": "NGUYEN TAN PHONG ",
                "cardNo": "19034929411111",
                "bankCode": "Techcombank",
                "bankName": "Techcombank",
                "branch": "",
                "remark": null,
                "status": 1,
                "sort": null,
                "cardType": "Debit"
            },
            {
                "id": "1741387199561195522",
                "createTime": "1704014036000",
                "createUser": "1741386895688052737",
                "updateTime": null,
                "updateUser": null,
                "orgCode": "xg_cm",
                "playerId": "1741386895688052737",
                "loginName": "10002",
                "accountName": "Djxbrđn",
                "cardNo": "18373846483",
                "bankCode": "Acb",
                "bankName": "Acb",
                "branch": "",
                "remark": null,
                "status": 1,
                "sort": null,
                "cardType": "Debit"
            },
            {
                "id": "1741406661932867585",
                "createTime": "1704018677000",
                "createUser": "1741406335334985730",
                "updateTime": null,
                "updateUser": null,
                "orgCode": "xg_cm",
                "playerId": "1741406335334985730",
                "loginName": "10003",
                "accountName": "你大哥",
                "cardNo": "1988888888",
                "bankCode": "Vcb",
                "bankName": "Vcb",
                "branch": "",
                "remark": null,
                "status": 1,
                "sort": null,
                "cardType": "Debit"
            },
            {
                "id": "1741450875148275713",
                "createTime": "1704029218000",
                "createUser": "1725368138079498241",
                "updateTime": null,
                "updateUser": null,
                "orgCode": "xg_cm",
                "playerId": "1725368138079498241",
                "loginName": "test",
                "accountName": "43243",
                "cardNo": "24343",
                "bankCode": "432432",
                "bankName": "432432",
                "branch": "",
                "remark": null,
                "status": 1,
                "sort": null,
                "cardType": "Debit"
            },
            {
                "id": "1741650521908862978",
                "createTime": "1704076817000",
                "createUser": "1741650138423648258",
                "updateTime": null,
                "updateUser": null,
                "orgCode": "xg_cm",
                "playerId": "1741650138423648258",
                "loginName": "Nguyễn Tuấn Phong",
                "accountName": "NGUYEN TUAN PHONG",
                "cardNo": "1528963587423",
                "bankCode": "VIETCOMBANK",
                "bankName": "VIETCOMBANK",
                "branch": "",
                "remark": null,
                "status": 1,
                "sort": null,
                "cardType": "Debit"
            },
            {
                "id": "1741651116044607490",
                "createTime": "1704076959000",
                "createUser": "1741650475524055042",
                "updateTime": null,
                "updateUser": null,
                "orgCode": "xg_cm",
                "playerId": "1741650475524055042",
                "loginName": "nguyentuan",
                "accountName": "NGUYEN MINH TUAN",
                "cardNo": "19034929411112",
                "bankCode": "Techcombank",
                "bankName": "Techcombank",
                "branch": "",
                "remark": null,
                "status": 1,
                "sort": null,
                "cardType": "Debit"
            },
            {
                "id": "1741703471993741313",
                "createTime": "1704089442000",
                "createUser": "1741702364319997953",
                "updateTime": null,
                "updateUser": null,
                "orgCode": "xg_cm",
                "playerId": "1741702364319997953",
                "loginName": "cuongtran",
                "accountName": "TRAN QUOC CUONG",
                "cardNo": "9397936769999",
                "bankCode": "MB BANK",
                "bankName": "MB BANK",
                "branch": "",
                "remark": null,
                "status": 1,
                "sort": null,
                "cardType": "Debit"
            },
            {
                "id": "1742917435943575553",
                "createTime": "1704378873000",
                "createUser": "1742189098027737090",
                "updateTime": null,
                "updateUser": null,
                "orgCode": "xg_cm",
                "playerId": "1742189098027737090",
                "loginName": "Vo bich thu ",
                "accountName": "Vo Bich THu ",
                "cardNo": "050047836228",
                "bankCode": "Ngân hàng sacombank ",
                "bankName": "Ngân hàng sacombank ",
                "branch": "",
                "remark": null,
                "status": 1,
                "sort": null,
                "cardType": "Debit"
            },
            {
                "id": "1745433045311184897",
                "createTime": "1704978641000",
                "createUser": "1744623699761324034",
                "updateTime": null,
                "updateUser": null,
                "orgCode": "xg_cm",
                "playerId": "1744623699761324034",
                "loginName": "Phạmyến",
                "accountName": "Phạmyến ",
                "cardNo": "0978141651",
                "bankCode": "MB",
                "bankName": "MB",
                "branch": "",
                "remark": null,
                "status": 1,
                "sort": null,
                "cardType": "Debit"
            },
            {
                "id": "1745795740954812418",
                "createTime": "1705065115000",
                "createUser": "1745696918282985474",
                "updateTime": null,
                "updateUser": null,
                "orgCode": "xg_cm",
                "playerId": "1745696918282985474",
                "loginName": "0387000367",
                "accountName": "Kim Hòang Anh Thư",
                "cardNo": "050148875747",
                "bankCode": "Sacombank ",
                "bankName": "Sacombank ",
                "branch": "",
                "remark": null,
                "status": 1,
                "sort": null,
                "cardType": "Debit"
            }
        ],
        "rainbow": [
            1,
            2,
            3
        ],
        "totalRecords": [],
        "totalSum": null
    }
}