{
    "success": true,
    "code": 200,
    "message": "请求成功",
    "data": {
        "pageNo": 1,
        "pageSize": 10,
        "totalPage": 43,
        "totalRows": 427,
        "rows": [
            {
                "id": "1766469866744717313",
                "createTime": "1709994210311",
                "createUser": "1764265035846148097",
                "updateTime": "1709994210311",
                "updateUser": "1764265035846148097",
                "orgCode": "xg_cm",
                "playerId": "1764265035846148097",
                "loginName": "0972022938",
                "transType": "DEPOSIT",
                "optType": "ADD",
                "beforeAmount": 110000000.0000,
                "amount": 68000000.0000,
                "afterAmount": 178000000.0000,
                "refOrderNo": "D240309212330310112",
                "remarks": null,
                "content": null,
                "tableIndex": 149
            },
            {
                "id": "1766455262178205697",
                "createTime": "1709990728312",
                "createUser": "1764628340448190465",
                "updateTime": "1709990728312",
                "updateUser": "1764628340448190465",
                "orgCode": "xg_cm",
                "playerId": "1764628340448190465",
                "loginName": "test3",
                "transType": "BET",
                "optType": "SUB",
                "beforeAmount": 9807887665.0000,
                "amount": 10000000.0000,
                "afterAmount": 9797887665.0000,
                "refOrderNo": "B240309202528310176",
                "remarks": null,
                "content": null,
                "tableIndex": 140
            },
            {
                "id": "1766455262148845570",
                "createTime": "1709990728305",
                "createUser": "1764628340448190465",
                "updateTime": "1709990728305",
                "updateUser": "1764628340448190465",
                "orgCode": "xg_cm",
                "playerId": "1764628340448190465",
                "loginName": "test3",
                "transType": "BET",
                "optType": "SUB",
                "beforeAmount": 9817887665.0000,
                "amount": 10000000.0000,
                "afterAmount": 9807887665.0000,
                "refOrderNo": "B240309202528303175",
                "remarks": null,
                "content": null,
                "tableIndex": 140
            },
            {
                "id": "1766455262119485441",
                "createTime": "1709990728298",
                "createUser": "1764628340448190465",
                "updateTime": "1709990728298",
                "updateUser": "1764628340448190465",
                "orgCode": "xg_cm",
                "playerId": "1764628340448190465",
                "loginName": "test3",
                "transType": "BET",
                "optType": "SUB",
                "beforeAmount": 9827887665.0000,
                "amount": 10000000.0000,
                "afterAmount": 9817887665.0000,
                "refOrderNo": "B240309202528296174",
                "remarks": null,
                "content": null,
                "tableIndex": 140
            },
            {
                "id": "1766455262085931009",
                "createTime": "1709990728290",
                "createUser": "1764628340448190465",
                "updateTime": "1709990728290",
                "updateUser": "1764628340448190465",
                "orgCode": "xg_cm",
                "playerId": "1764628340448190465",
                "loginName": "test3",
                "transType": "BET",
                "optType": "SUB",
                "beforeAmount": 9837887665.0000,
                "amount": 10000000.0000,
                "afterAmount": 9827887665.0000,
                "refOrderNo": "B240309202528288173",
                "remarks": null,
                "content": null,
                "tableIndex": 140
            },
            {
                "id": "1766455262056570882",
                "createTime": "1709990728283",
                "createUser": "1764628340448190465",
                "updateTime": "1709990728283",
                "updateUser": "1764628340448190465",
                "orgCode": "xg_cm",
                "playerId": "1764628340448190465",
                "loginName": "test3",
                "transType": "BET",
                "optType": "SUB",
                "beforeAmount": 9847887665.0000,
                "amount": 10000000.0000,
                "afterAmount": 9837887665.0000,
                "refOrderNo": "B240309202528281172",
                "remarks": null,
                "content": null,
                "tableIndex": 140
            },
            {
                "id": "1766455262027210754",
                "createTime": "1709990728275",
                "createUser": "1764628340448190465",
                "updateTime": "1709990728275",
                "updateUser": "1764628340448190465",
                "orgCode": "xg_cm",
                "playerId": "1764628340448190465",
                "loginName": "test3",
                "transType": "BET",
                "optType": "SUB",
                "beforeAmount": 9857887665.0000,
                "amount": 10000000.0000,
                "afterAmount": 9847887665.0000,
                "refOrderNo": "B240309202528273171",
                "remarks": null,
                "content": null,
                "tableIndex": 140
            },
            {
                "id": "1766455261993656322",
                "createTime": "1709990728268",
                "createUser": "1764628340448190465",
                "updateTime": "1709990728268",
                "updateUser": "1764628340448190465",
                "orgCode": "xg_cm",
                "playerId": "1764628340448190465",
                "loginName": "test3",
                "transType": "BET",
                "optType": "SUB",
                "beforeAmount": 9867887665.0000,
                "amount": 10000000.0000,
                "afterAmount": 9857887665.0000,
                "refOrderNo": "B240309202528265170",
                "remarks": null,
                "content": null,
                "tableIndex": 140
            },
            {
                "id": "1766455261960101890",
                "createTime": "1709990728260",
                "createUser": "1764628340448190465",
                "updateTime": "1709990728260",
                "updateUser": "1764628340448190465",
                "orgCode": "xg_cm",
                "playerId": "1764628340448190465",
                "loginName": "test3",
                "transType": "BET",
                "optType": "SUB",
                "beforeAmount": 9877887665.0000,
                "amount": 10000000.0000,
                "afterAmount": 9867887665.0000,
                "refOrderNo": "B240309202528258169",
                "remarks": null,
                "content": null,
                "tableIndex": 140
            },
            {
                "id": "1766455261930741761",
                "createTime": "1709990728252",
                "createUser": "1764628340448190465",
                "updateTime": "1709990728252",
                "updateUser": "1764628340448190465",
                "orgCode": "xg_cm",
                "playerId": "1764628340448190465",
                "loginName": "test3",
                "transType": "BET",
                "optType": "SUB",
                "beforeAmount": 9887887665.0000,
                "amount": 10000000.0000,
                "afterAmount": 9877887665.0000,
                "refOrderNo": "B240309202528250168",
                "remarks": null,
                "content": null,
                "tableIndex": 140
            }
        ],
        "rainbow": [
            1,
            2,
            3,
            4,
            5
        ],
        "totalRecords": [],
        "totalSum": null
    }
}